@startuml
start
:5;
note right
Un nou element entraria darrera del 5.
El 5 és l'últim element que ha entrat a la cua.
end note
:4;
:3;
:2;
:1;
note right
Aquest serà el primer element a sortir de la cua.
L'1 és l'element que fa més temps que ha entrat a la cua.
end note
stop
@enduml
