@startuml
class Llibre {
-editor : String
-dataPublicacio: Date
-isbn : String
}
class Capítol {
-resum: String
}
abstract class PartLlibre {
-títol: String
-número: int
}
Llibre *-- Part
Part *- Capítol
Capítol *- Secció
PartLlibre <|-- Part
PartLlibre <|-- Capítol
PartLlibre <|-- Secció
@enduml
