@startuml
class Button {
+addEventHandler(eventType : EventType, eventHander : EventHandler)
}
interface EventHandler {
+{abstract}handle(event : Event)
}
class ElMeuBoto
class JFrame
class JMenu
class JTextArea
class ElMeuJMenu {
+valueChanged(e : ListSelectionEvent)
}
class LaMevaFinestra {
-menu : ElMeuJMenu
-text : LaMevaJTextArea
-llista : LaMevaJList
}
class LaMevaJTextArea {
+valueChanged(e : ListSelectionEvent)
}

Button -> EventHandler
Button <|--- ElMeuBoto
LaMevaJList <-* LaMevaFinestra: -llista
LaMevaFinestra --|> JFrame
LaMevaFinestra *-> ElMeuJMenu: -menu
LaMevaFinestra *-> LaMevaJTextArea: -text
ElMeuJMenu --|> JMenu
ListSelectionListener <|.. ElMeuJMenu
ListSelectionListener <|.. LaMevaJTextArea
LaMevaJTextArea --|> JTextArea

note top of Button: ProdueixEsdeveniments
note right of ListSelectionListener: Listener
note top of ElMeuJMenu: MostraEsdeveniments
note top of LaMevaFinestra: Principal
note top of LaMevaJTextArea: GuardaEsdeveniments
note bottom of LaMevaFinestra
Crea la llista, el menú i l'àrea de text i els associa:
  llista.addListSelectionListener(menu);
  llista.addListSelectionListener(text)"
end note
@enduml
